[gd_scene load_steps=5 format=2]

[ext_resource path="res://Scripts/MainMenu.gd" type="Script" id=1]
[ext_resource path="res://GFX/GUI/menu.png" type="Texture" id=2]
[ext_resource path="res://GFX/GUI/play.png" type="Texture" id=3]
[ext_resource path="res://SFX/Menu.ogg" type="AudioStream" id=4]

[node name="MainMenu" type="Control"]
anchor_right = 1.0
anchor_bottom = 1.0
script = ExtResource( 1 )

[node name="Background" type="TextureRect" parent="."]
anchor_right = 1.0
anchor_bottom = 1.0
texture = ExtResource( 2 )
expand = true

[node name="PlayButton" type="TextureButton" parent="."]
anchor_left = 0.5
anchor_top = 0.5
anchor_right = 0.5
anchor_bottom = 0.5
margin_left = -403.078
margin_top = 209.477
margin_right = -103.078
margin_bottom = 332.477
texture_normal = ExtResource( 3 )

[node name="MenuMusic" type="AudioStreamPlayer" parent="."]
stream = ExtResource( 4 )
autoplay = true

[connection signal="pressed" from="PlayButton" to="." method="_on_PlayButton_pressed"]
